…
## 문제 1. gapminder 라이브러리를 이용하여 다음 질문에 답하라. (R로 작성한 코드와 실행결과를 제시)

#### 1) gapminder 데이터 프레임의 구성 항목을 조회해보고 설명하라

```r
> install.packages("gapminder")
trying URL 'https://cran.rstudio.com/bin/macosx/contrib/4.1/gapminder_0.3.0.tgz'
Content type 'application/x-gzip' length 2031864 bytes (1.9 MB)
==================================================
downloaded 1.9 MB
The downloaded binary packages are in
	/var/folders/0w/vr0g48zx0z5bhnzwf1d7py680000gn/T//RtmpGtR8mN/downloaded_packages
> library(gapminder)
> gapminder
# A tibble: 1,704 × 6
   country     continent  year lifeExp      pop gdpPercap
   <fct>       <fct>     <int>   <dbl>    <int>     <dbl>
 1 Afghanistan Asia       1952    28.8  8425333      779.
 2 Afghanistan Asia       1957    30.3  9240934      821.
 3 Afghanistan Asia       1962    32.0 10267083      853.
 4 Afghanistan Asia       1967    34.0 11537966      836.
 5 Afghanistan Asia       1972    36.1 13079460      740.
 6 Afghanistan Asia       1977    38.4 14880372      786.
 7 Afghanistan Asia       1982    39.9 12881816      978.
 8 Afghanistan Asia       1987    40.8 13867957      852.
 9 Afghanistan Asia       1992    41.7 16317921      649.
10 Afghanistan Asia       1997    41.8 22227415      635.
# … with 1,694 more rows
```
- country : factor with 142 levels
- continent : factor with 5 levels
- year : ranges from 1952 to 2007 in increments of 5 years
- lifeExp : life expectancy at birth, in years
- pop : population
- gdpPercap : GDP per capita (US$, inflation-adjusted)

#### 2) gapminder 데이터에서 각 대륙의 연도별 gdpPercap의 평균값을 플롯하고 범례를 추가하라
```r
> library(dplyr)
> library(ggplot2)
> groupedData = gapminder%>%group_by(year, continent)%>%summarise(avg_gdpPercap = mean(gdpPercap))
`summarise()` has grouped output by 'year'. You can override using the `.groups` argument.
> groupedData
# A tibble: 60 × 3
# Groups:   year [12]
    year continent avg_gdpPercap
   <int> <fct>             <dbl>
 1  1952 Africa            1253.
 2  1952 Americas          4079.
 3  1952 Asia              5195.
 4  1952 Europe            5661.
 5  1952 Oceania          10298.
 6  1957 Africa            1385.
 7  1957 Americas          4616.
 8  1957 Asia              5788.
 9  1957 Europe            6963.
10  1957 Oceania          11599.
# … with 50 more rows
…
