…
```r
> #각 나라의 기대 수명
> gapminder[, c("country","lifeExp")]
# A tibble: 1,704 × 2
   country     lifeExp
   <fct>         <dbl>
 1 Afghanistan    28.8
 2 Afghanistan    30.3
 3 Afghanistan    32.0
 4 Afghanistan    34.0
 5 Afghanistan    36.1
 6 Afghanistan    38.4
 7 Afghanistan    39.9
 8 Afghanistan    40.8
 9 Afghanistan    41.7
10 Afghanistan    41.8
# … with 1,694 more rows

> gapminder[, c("country","lifeExp","year")]
 A tibble: 1,704 × 3
   country     lifeExp  year
   <fct>         <dbl> <int>
 1 Afghanistan    28.8  1952
 2 Afghanistan    30.3  1957
 3 Afghanistan    32.0  1962
 4 Afghanistan    34.0  1967
 5 Afghanistan    36.1  1972
 6 Afghanistan    38.4  1977
 7 Afghanistan    39.9  1982
 8 Afghanistan    40.8  1987
 9 Afghanistan    41.7  1992
10 Afghanistan    41.8  1997
# … with 1,694 more rows
…
### dplyr 라이브러리를 이용한 데이터 가공

`dplyr` 라이브러리를 이용해 특정 속성(열)을 추출할 때는 다음과 같이 `select`함수를 이용한다. 열을 지정할 때 $나 ""없이 열 이름을 그대로 사용할 수 있어서 편리하다. 

```r
> select(gapminder, country, year, lifeExp)
# A tibble: 1,704 × 3
   country      year lifeExp
   <fct>       <int>   <dbl>
 1 Afghanistan  1952    28.8
 2 Afghanistan  1957    30.3
 3 Afghanistan  1962    32.0
 4 Afghanistan  1967    34.0
 5 Afghanistan  1972    36.1
 6 Afghanistan  1977    38.4
 7 Afghanistan  1982    39.9
 8 Afghanistan  1987    40.8
 9 Afghanistan  1992    41.7
10 Afghanistan  1997    41.8
# … with 1,694 more rows
```
…
# A tibble: 1 × 1
    pop_avg
      <dbl>
1 29601212.
> summarise(group_by(gapminder, continent), pop_avg=mean(pop))
# A tibble: 5 × 2
  continent   pop_avg
  <fct>         <dbl>
1 Africa     9916003.
2 Americas  24504795.
3 Asia      77038722.
4 Europe    17169765.
5 Oceania    8874672.
> summarise(group_by(gapminder, continent, country), pop_avg=mean(pop))
# A tibble: 142 × 3
# Groups:   continent [5]
   continent country                    pop_avg
   <fct>     <fct>                        <dbl>
 1 Africa    Algeria                  19875406.
 2 Africa    Angola                    7309390.
 3 Africa    Benin                     4017497.
 4 Africa    Botswana                   971186.
 5 Africa    Burkina Faso              7548677.
 6 Africa    Burundi                   4651608.
 7 Africa    Cameroon                  9816648.
 8 Africa    Central African Republic  2560963 
 9 Africa    Chad                      5329256.
10 Africa    Comoros                    361684.
# … with 132 more rows
```

**%>%연산자를 이용한 연속처리**  
`>%>`연산자를 사용하면 일련의 가공 작업을 연속적으로 사용할 수 있다.
```r
> gapminder%>%group_by(continent, country)%>%summarise(pop_avg=mean(pop))
# A tibble: 142 × 3
# Groups:   continent [5]
   continent country                    pop_avg
   <fct>     <fct>                        <dbl>
 1 Africa    Algeria                  19875406.
 2 Africa    Angola                    7309390.
 3 Africa    Benin                     4017497.
 4 Africa    Botswana                   971186.
 5 Africa    Burkina Faso              7548677.
 6 Africa    Burundi                   4651608.
 7 Africa    Cameroon                  9816648.
 8 Africa    Central African Republic  2560963 
 9 Africa    Chad                      5329256.
10 Africa    Comoros                    361684.
# … with 132 more rows
```
…
3번
```r
> gapminder_unfiltered%>%group_by(country)%>%summarise(count=n())%>%filter(count>=12)%>%arrange(desc(count))
# A tibble: 149 × 2
   country         count
   <fct>           <int>
 1 Czech Republic     58
 2 Denmark            58
 3 Finland            58
 4 Iceland            58
 5 Japan              58
 6 Netherlands        58
 7 Norway             58
 8 Portugal           58
 9 Slovak Republic    58
10 Spain              58
# … with 139 more rows
```
…
```r
> #총 판매량과 평균 가격 속성을 지역에 따라 구분
> (x_avg= avocado%>%group_by(region)%>%summarise(V_avg=mean(Total.Volume), P_avg=mean(AveragePrice)))
# A tibble: 54 × 3
   region                 V_avg P_avg
   <chr>                  <dbl> <dbl>
 1 Albany                47538.  1.56
 2 Atlanta              262145.  1.34
 3 BaltimoreWashington  398562.  1.53
 4 Boise                 42643.  1.35
 5 Boston               287793.  1.53
 6 BuffaloRochester      67936.  1.52
 7 California          3044324.  1.40
 8 Charlotte            105194.  1.61
 9 Chicago              395569.  1.56
10 CincinnatiDayton     131722.  1.21
# … with 44 more rows
```
```r
> #년도와 유기농 여부를 추가하여 세분화
> (x_avg= avocado%>%group_by(region, year, type)%>%summarise(V_avg=mean(Total.Volume), P_avg=mean(AveragePrice)))
`summarise()` has grouped output by 'region', 'year'. You can override using the `.groups` argument.
# A tibble: 432 × 5
# Groups:   region, year [216]
   region   year type           V_avg P_avg
   <chr>   <int> <chr>          <dbl> <dbl>
 1 Albany   2015 conventional  76209.  1.17
 2 Albany   2015 organic        1289.  1.91
 3 Albany   2016 conventional  99453.  1.35
 4 Albany   2016 organic        1784.  1.72
 5 Albany   2017 conventional  95779.  1.53
 6 Albany   2017 organic        2931.  1.75
 7 Albany   2018 conventional 124161.  1.34
 8 Albany   2018 organic        4338.  1.53
 9 Atlanta  2015 conventional 440346.  1.05
10 Atlanta  2015 organic        6417.  1.71
# … with 422 more rows
```

이 통계값을 연도에 따라 관찰하기 위해 시각화 
```r
> x_avg %>% filter(region!="TotalUS")%>%ggplot(aes(year, V_avg, col=type))
                                    +geom_line()+facet_wrap(~region)
```

<img src="assets/../../../assets/img/r-data/5.png" width=600>

**데이터 정렬과 검색**  
`arrange`함수를 사용해 총 판매량을 기준으로 판매량 순위는 물론 최댓값을 기록한 연도와 지역을 알아낼 수 있다. 
```r
> arrange(x_avg, desc(V_avg))
# A tibble: 432 × 5
# Groups:   region, year [216]
   region        year type             V_avg P_avg
   <chr>        <int> <chr>            <dbl> <dbl>
 1 TotalUS       2018 conventional 42125533. 1.06 
 2 TotalUS       2016 conventional 34043450. 1.05 
 3 TotalUS       2017 conventional 33995658. 1.22 
 4 TotalUS       2015 conventional 31224729. 1.01 
 5 SouthCentral  2018 conventional  7465557. 0.806
 6 West          2018 conventional  7451445. 0.981
 7 California    2018 conventional  6786962. 1.08 
 8 West          2016 conventional  6404892. 0.916
 9 West          2017 conventional  6279482. 1.10 
10 California    2016 conventional  6105539. 1.05 
# … with 422 more rows
```
…
**Date형 데이터의 활용**  
avocado 판매 정보를 이번에는 연도별 평균 대신 월별 평균으로 요약해보자. `Date`형 속성인 `Date`에서 `month`를 추출하려면 `lubridate` 라이브러리에서 제공하는 `month`함수를 사용한다.

```r
> library(lubridate)
> (x_avg = avocado%>%group_by(region, year, month(Date),type)%>%summarise(V_avg=mean(Total.Volume), P_avg=mean(AveragePrice)))
`summarise()` has grouped output by 'region', 'year', 'month(Date)'. You can override using the `.groups` argument.
# A tibble: 4,212 × 6
# Groups:   region, year, month(Date) [2,106]
   region  year `month(Date)` type          V_avg P_avg
   <chr>  <int>         <dbl> <chr>         <dbl> <dbl>
 1 Albany  2015             1 conventional 42932.  1.17
 2 Albany  2015             1 organic       1198.  1.84
 3 Albany  2015             2 conventional 52343.  1.03
 4 Albany  2015             2 organic       1334.  1.76
 5 Albany  2015             3 conventional 50659.  1.06
 6 Albany  2015             3 organic       1444.  1.83
 7 Albany  2015             4 conventional 48594.  1.17
 8 Albany  2015             4 organic       1402.  1.89
 9 Albany  2015             5 conventional 97216.  1.26
10 Albany  2015             5 organic       1836.  1.94
# … with 4,202 more rows
```
