…
```r
> gapminder%>%filter(lifeExp>70)%>%group_by(continent)%>%summarise(n=n_distinct(country))%>%ggplot(aes(x=reorder(continent, -n), y=n))+geom_bar(stat="identity", aes(fill=continent))+scale_fill_brewer(palette="Blues")
```

<img src="assets/../../../assets/img/r-data/13.png" width=400>


### 단원문제

1번
```r
> people = gapminder%>%filter(year==1952)%>%select(country,pop)%>%mutate(per=pop/sum(pop))%>%arrange(desc(pop))
> people
# A tibble: 142 × 3
   country              pop    per
   <fct>              <int>  <dbl>
 1 China          556263527 0.231 
 2 India          372000000 0.155 
 3 United States  157553000 0.0655
 4 Japan           86459025 0.0359
 5 Indonesia       82052000 0.0341
 6 Germany         69145952 0.0287
 7 Brazil          56602560 0.0235
 8 United Kingdom  50430000 0.0210
 9 Italy           47666000 0.0198
10 Bangladesh      46886859 0.0195
# … with 132 more rows
…
